<?xml version="1.0" encoding="UTF-8"?>
<session version="1.0">
<refactoring comment="Rename type &apos;assign.Rectangle&apos; to &apos;Assign3_01&apos;&#x0D;&#x0A;- Original project: &apos;Assign_3&apos;&#x0D;&#x0A;- Original element: &apos;assign.Rectangle&apos;&#x0D;&#x0A;- Renamed element: &apos;assign.Assign3_01&apos;&#x0D;&#x0A;- Update references to refactored element&#x0D;&#x0A;- Update textual occurrences in comments and strings" description="Rename type &apos;Rectangle&apos;" flags="589830" id="org.eclipse.jdt.ui.rename.type" input="/src&lt;assign{Rectangle.java[Rectangle" matchStrategy="1" name="Assign3_01" qualified="false" references="true" similarDeclarations="false" stamp="1632828758474" textual="false" version="1.0"/>
</session>